124.839966 10.168701 1
124.903936 10.168701 1
124.903936 10.105701 1
124.839966 10.105701 1
124.903936 10.042701 2
124.967905 10.042701 2
124.967905 9.979701 2
124.903936 9.979701 2
124.903936 10.105701 3
124.967905 10.105701 3
124.967905 10.042701 3
124.903936 10.042701 3
124.903936 10.168701 4
124.967905 10.168701 4
124.967905 10.105701 4
124.903936 10.105701 4
124.967905 10.042701 5
125.031875 10.042701 5
125.031875 9.979701 5
124.967905 9.979701 5
124.967905 10.168701 6
125.031875 10.168701 6
125.031875 10.105701 6
124.967905 10.105701 6
124.967905 10.231701 7
125.031875 10.231701 7
125.031875 10.168701 7
124.967905 10.168701 7
124.967905 10.294701 8
125.031875 10.294701 8
125.031875 10.231701 8
124.967905 10.231701 8
124.967905 10.357701 9
125.031875 10.357701 9
125.031875 10.294701 9
124.967905 10.294701 9
124.967905 10.798701 10
125.031875 10.798701 10
125.031875 10.735701 10
124.967905 10.735701 10
124.967905 10.861702 11
125.031875 10.861702 11
125.031875 10.798701 11
124.967905 10.798701 11
125.031875 10.042701 12
125.095845 10.042701 12
125.095845 9.979701 12
125.031875 9.979701 12
125.031875 10.105701 13
125.095845 10.105701 13
125.095845 10.042701 13
125.031875 10.042701 13
125.031875 10.168701 14
125.095845 10.168701 14
125.095845 10.105701 14
125.031875 10.105701 14
125.031875 10.294701 15
125.095845 10.294701 15
125.095845 10.231701 15
125.031875 10.231701 15
125.031875 10.357701 16
125.095845 10.357701 16
125.095845 10.294701 16
125.031875 10.294701 16
125.031875 10.798701 17
125.095845 10.798701 17
125.095845 10.735701 17
125.031875 10.735701 17
125.095845 10.042701 18
125.159814 10.042701 18
125.159814 9.979701 18
125.095845 9.979701 18
125.095845 10.105701 19
125.159814 10.105701 19
125.159814 10.042701 19
125.095845 10.042701 19
125.095845 10.168701 20
125.159814 10.168701 20
125.159814 10.105701 20
125.095845 10.105701 20
125.095845 10.231701 21
125.159814 10.231701 21
125.159814 10.168701 21
125.095845 10.168701 21
125.095845 10.294701 22
125.159814 10.294701 22
125.159814 10.231701 22
125.095845 10.231701 22
125.095845 10.735701 23
125.159814 10.735701 23
125.159814 10.672701 23
125.095845 10.672701 23
125.095845 10.798701 24
125.159814 10.798701 24
125.159814 10.735701 24
125.095845 10.735701 24
125.159814 9.979701 25
125.223784 9.979701 25
125.223784 9.916701 25
125.159814 9.916701 25
125.159814 10.042701 26
125.223784 10.042701 26
125.223784 9.979701 26
125.159814 9.979701 26
125.159814 10.168701 27
125.223784 10.168701 27
125.223784 10.105701 27
125.159814 10.105701 27
125.159814 10.231701 28
125.223784 10.231701 28
125.223784 10.168701 28
125.159814 10.168701 28
125.159814 10.294701 29
125.223784 10.294701 29
125.223784 10.231701 29
125.159814 10.231701 29
125.159814 10.483701 30
125.223784 10.483701 30
125.223784 10.420701 30
125.159814 10.420701 30
125.159814 10.546701 31
125.223784 10.546701 31
125.223784 10.483701 31
125.159814 10.483701 31
125.159814 10.609701 32
125.223784 10.609701 32
125.223784 10.546701 32
125.159814 10.546701 32
125.159814 10.672701 33
125.223784 10.672701 33
125.223784 10.609701 33
125.159814 10.609701 33
125.159814 10.735701 34
125.223784 10.735701 34
125.223784 10.672701 34
125.159814 10.672701 34
125.223784 9.916701 35
125.287754 9.916701 35
125.287754 9.853701 35
125.223784 9.853701 35
125.223784 9.979701 36
125.287754 9.979701 36
125.287754 9.916701 36
125.223784 9.916701 36
125.223784 10.042701 37
125.287754 10.042701 37
125.287754 9.979701 37
125.223784 9.979701 37
125.223784 10.105701 38
125.287754 10.105701 38
125.287754 10.042701 38
125.223784 10.042701 38
125.223784 10.168701 39
125.287754 10.168701 39
125.287754 10.105701 39
125.223784 10.105701 39
125.223784 10.294701 40
125.287754 10.294701 40
125.287754 10.231701 40
125.223784 10.231701 40
125.223784 10.357701 41
125.287754 10.357701 41
125.287754 10.294701 41
125.223784 10.294701 41
125.223784 10.420701 42
125.287754 10.420701 42
125.287754 10.357701 42
125.223784 10.357701 42
125.223784 10.483701 43
125.287754 10.483701 43
125.287754 10.420701 43
125.223784 10.420701 43
125.287754 9.916701 44
125.351723 9.916701 44
125.351723 9.853701 44
125.287754 9.853701 44
125.287754 9.979701 45
125.351723 9.979701 45
125.351723 9.916701 45
125.287754 9.916701 45
125.287754 10.042701 46
125.351723 10.042701 46
125.351723 9.979701 46
125.287754 9.979701 46
125.351723 9.601700 47
125.415693 9.601700 47
125.415693 9.538700 47
125.351723 9.538700 47
125.351723 9.664700 48
125.415693 9.664700 48
125.415693 9.601700 48
125.351723 9.601700 48
125.351723 9.727700 49
125.415693 9.727700 49
125.415693 9.664700 49
125.351723 9.664700 49
125.351723 9.790700 50
125.415693 9.790700 50
125.415693 9.727700 50
125.351723 9.727700 50
125.351723 9.853701 51
125.415693 9.853701 51
125.415693 9.790700 51
125.351723 9.790700 51
125.415693 9.538700 52
125.479663 9.538700 52
125.479663 9.475700 52
125.415693 9.475700 52
125.415693 9.601700 53
125.479663 9.601700 53
125.479663 9.538700 53
125.415693 9.538700 53
125.415693 9.853701 54
125.479663 9.853701 54
125.479663 9.790700 54
125.415693 9.790700 54
125.415693 9.916701 55
125.479663 9.916701 55
125.479663 9.853701 55
125.415693 9.853701 55
125.479663 9.223700 56
125.543633 9.223700 56
125.543633 9.160700 56
125.479663 9.160700 56
125.479663 9.286700 57
125.543633 9.286700 57
125.543633 9.223700 57
125.479663 9.223700 57
125.479663 9.349700 58
125.543633 9.349700 58
125.543633 9.286700 58
125.479663 9.286700 58
125.479663 9.412700 59
125.543633 9.412700 59
125.543633 9.349700 59
125.479663 9.349700 59
125.479663 9.475700 60
125.543633 9.475700 60
125.543633 9.412700 60
125.479663 9.412700 60
125.479663 9.538700 61
125.543633 9.538700 61
125.543633 9.475700 61
125.479663 9.475700 61
125.479663 9.916701 62
125.543633 9.916701 62
125.543633 9.853701 62
125.479663 9.853701 62
125.479663 9.979701 63
125.543633 9.979701 63
125.543633 9.916701 63
125.479663 9.916701 63
125.479663 10.042701 64
125.543633 10.042701 64
125.543633 9.979701 64
125.479663 9.979701 64
125.479663 10.105701 65
125.543633 10.105701 65
125.543633 10.042701 65
125.479663 10.042701 65
125.479663 10.168701 66
125.543633 10.168701 66
125.543633 10.105701 66
125.479663 10.105701 66
125.479663 10.231701 67
125.543633 10.231701 67
125.543633 10.168701 67
125.479663 10.168701 67
125.479663 10.294701 68
125.543633 10.294701 68
125.543633 10.231701 68
125.479663 10.231701 68
125.479663 10.357701 69
125.543633 10.357701 69
125.543633 10.294701 69
125.479663 10.294701 69
125.543633 9.223700 70
125.607602 9.223700 70
125.607602 9.160700 70
125.543633 9.160700 70
125.543633 9.979701 71
125.607602 9.979701 71
125.607602 9.916701 71
125.543633 9.916701 71
125.543633 10.042701 72
125.607602 10.042701 72
125.607602 9.979701 72
125.543633 9.979701 72
125.543633 10.357701 73
125.607602 10.357701 73
125.607602 10.294701 73
125.543633 10.294701 73
125.543633 10.420701 74
125.607602 10.420701 74
125.607602 10.357701 74
125.543633 10.357701 74
125.543633 10.483701 75
125.607602 10.483701 75
125.607602 10.420701 75
125.543633 10.420701 75
125.607602 9.664700 76
125.671572 9.664700 76
125.671572 9.601700 76
125.607602 9.601700 76
125.607602 9.727700 77
125.671572 9.727700 77
125.671572 9.664700 77
125.607602 9.664700 77
125.607602 10.042701 78
125.671572 10.042701 78
125.671572 9.979701 78
125.607602 9.979701 78
125.607602 10.483701 79
125.671572 10.483701 79
125.671572 10.420701 79
125.607602 10.420701 79
125.671572 9.664700 80
125.735542 9.664700 80
125.735542 9.601700 80
125.671572 9.601700 80
125.671572 9.727700 81
125.735542 9.727700 81
125.735542 9.664700 81
125.671572 9.664700 81
125.671572 9.790700 82
125.735542 9.790700 82
125.735542 9.727700 82
125.671572 9.727700 82
125.671572 9.853701 83
125.735542 9.853701 83
125.735542 9.790700 83
125.671572 9.790700 83
125.671572 9.916701 84
125.735542 9.916701 84
125.735542 9.853701 84
125.671572 9.853701 84
125.671572 9.979701 85
125.735542 9.979701 85
125.735542 9.916701 85
125.671572 9.916701 85
125.671572 10.042701 86
125.735542 10.042701 86
125.735542 9.979701 86
125.671572 9.979701 86
125.671572 10.105701 87
125.735542 10.105701 87
125.735542 10.042701 87
125.671572 10.042701 87
125.671572 10.168701 88
125.735542 10.168701 88
125.735542 10.105701 88
125.671572 10.105701 88
125.671572 10.231701 89
125.735542 10.231701 89
125.735542 10.168701 89
125.671572 10.168701 89
125.671572 10.294701 90
125.735542 10.294701 90
125.735542 10.231701 90
125.671572 10.231701 90
125.671572 10.357701 91
125.735542 10.357701 91
125.735542 10.294701 91
125.671572 10.294701 91
125.671572 10.420701 92
125.735542 10.420701 92
125.735542 10.357701 92
125.671572 10.357701 92
125.671572 10.483701 93
125.735542 10.483701 93
125.735542 10.420701 93
125.671572 10.420701 93
125.671572 10.735701 94
125.735542 10.735701 94
125.735542 10.672701 94
125.671572 10.672701 94
125.671572 10.798701 95
125.735542 10.798701 95
125.735542 10.735701 95
125.671572 10.735701 95
125.735542 9.664700 96
125.799511 9.664700 96
125.799511 9.601700 96
125.735542 9.601700 96
125.735542 9.790700 97
125.799511 9.790700 97
125.799511 9.727700 97
125.735542 9.727700 97
125.735542 9.853701 98
125.799511 9.853701 98
125.799511 9.790700 98
125.735542 9.790700 98
125.735542 10.735701 99
125.799511 10.735701 99
125.799511 10.672701 99
125.735542 10.672701 99
125.735542 10.798701 100
125.799511 10.798701 100
125.799511 10.735701 100
125.735542 10.735701 100
125.799511 9.601700 101
125.863481 9.601700 101
125.863481 9.538700 101
125.799511 9.538700 101
125.799511 9.664700 102
125.863481 9.664700 102
125.863481 9.601700 102
125.799511 9.601700 102
125.799511 10.735701 103
125.863481 10.735701 103
125.863481 10.672701 103
125.799511 10.672701 103
125.799511 10.798701 104
125.863481 10.798701 104
125.863481 10.735701 104
125.799511 10.735701 104
125.863481 9.601700 105
125.927451 9.601700 105
125.927451 9.538700 105
125.863481 9.538700 105
125.863481 9.664700 106
125.927451 9.664700 106
125.927451 9.601700 106
125.863481 9.601700 106
125.863481 9.727700 107
125.927451 9.727700 107
125.927451 9.664700 107
125.863481 9.664700 107
125.863481 9.790700 108
125.927451 9.790700 108
125.927451 9.727700 108
125.863481 9.727700 108
125.863481 9.853701 109
125.927451 9.853701 109
125.927451 9.790700 109
125.863481 9.790700 109
125.863481 9.916701 110
125.927451 9.916701 110
125.927451 9.853701 110
125.863481 9.853701 110
125.863481 9.979701 111
125.927451 9.979701 111
125.927451 9.916701 111
125.863481 9.916701 111
125.927451 9.538700 112
125.991420 9.538700 112
125.991420 9.475700 112
125.927451 9.475700 112
125.927451 9.601700 113
125.991420 9.601700 113
125.991420 9.538700 113
125.927451 9.538700 113
125.927451 9.853701 114
125.991420 9.853701 114
125.991420 9.790700 114
125.927451 9.790700 114
125.927451 9.979701 115
125.991420 9.979701 115
125.991420 9.916701 115
125.927451 9.916701 115
125.991420 9.286700 116
126.055390 9.286700 116
126.055390 9.223700 116
125.991420 9.223700 116
125.991420 9.349700 117
126.055390 9.349700 117
126.055390 9.286700 117
125.991420 9.286700 117
125.991420 9.412700 118
126.055390 9.412700 118
126.055390 9.349700 118
125.991420 9.349700 118
125.991420 9.475700 119
126.055390 9.475700 119
126.055390 9.412700 119
125.991420 9.412700 119
125.991420 9.538700 120
126.055390 9.538700 120
126.055390 9.475700 120
125.991420 9.475700 120
125.991420 9.601700 121
126.055390 9.601700 121
126.055390 9.538700 121
125.991420 9.538700 121
125.991420 9.664700 122
126.055390 9.664700 122
126.055390 9.601700 122
125.991420 9.601700 122
125.991420 9.727700 123
126.055390 9.727700 123
126.055390 9.664700 123
125.991420 9.664700 123
125.991420 9.853701 124
126.055390 9.853701 124
126.055390 9.790700 124
125.991420 9.790700 124
125.991420 9.979701 125
126.055390 9.979701 125
126.055390 9.916701 125
125.991420 9.916701 125
125.991420 10.042701 126
126.055390 10.042701 126
126.055390 9.979701 126
125.991420 9.979701 126
126.055390 9.286700 127
126.119360 9.286700 127
126.119360 9.223700 127
126.055390 9.223700 127
126.055390 9.727700 128
126.119360 9.727700 128
126.119360 9.664700 128
126.055390 9.664700 128
126.055390 10.042701 129
126.119360 10.042701 129
126.119360 9.979701 129
126.055390 9.979701 129
126.119360 9.286700 130
126.183330 9.286700 130
126.183330 9.223700 130
126.119360 9.223700 130
126.119360 9.727700 131
126.183330 9.727700 131
126.183330 9.664700 131
126.119360 9.664700 131
126.119360 9.790700 132
126.183330 9.790700 132
126.183330 9.727700 132
126.119360 9.727700 132
126.119360 9.853701 133
126.183330 9.853701 133
126.183330 9.790700 133
126.119360 9.790700 133
126.119360 9.916701 134
126.183330 9.916701 134
126.183330 9.853701 134
126.119360 9.853701 134
126.119360 9.979701 135
126.183330 9.979701 135
126.183330 9.916701 135
126.119360 9.916701 135
126.119360 10.042701 136
126.183330 10.042701 136
126.183330 9.979701 136
126.119360 9.979701 136
126.183330 9.223700 137
126.247299 9.223700 137
126.247299 9.160700 137
126.183330 9.160700 137
126.183330 9.286700 138
126.247299 9.286700 138
126.247299 9.223700 138
126.183330 9.223700 138
